C:\Users\laura\Documents\ToegepasteInformatica3\Java3\project_programmeren_3\Opdracht2\reflection_opgave\src\main\java\be\kdg\distrib\communication\NetworkAddress.java
C:\Users\laura\Documents\ToegepasteInformatica3\Java3\project_programmeren_3\Opdracht2\reflection_opgave\src\main\java\be\kdg\distrib\communication\NameValuePair.java
C:\Users\laura\Documents\ToegepasteInformatica3\Java3\project_programmeren_3\Opdracht2\reflection_opgave\src\main\java\be\kdg\distrib\stubFactory\StubFactory.java
C:\Users\laura\Documents\ToegepasteInformatica3\Java3\project_programmeren_3\Opdracht2\reflection_opgave\src\main\java\be\kdg\distrib\stubFactory\StubInvocationHandler.java
C:\Users\laura\Documents\ToegepasteInformatica3\Java3\project_programmeren_3\Opdracht2\reflection_opgave\src\main\java\be\kdg\distrib\skeletonFactory\SkeletonFactory.java
C:\Users\laura\Documents\ToegepasteInformatica3\Java3\project_programmeren_3\Opdracht2\reflection_opgave\src\main\java\be\kdg\distrib\skeletonFactory\SkeletonInvocationHandler.java
C:\Users\laura\Documents\ToegepasteInformatica3\Java3\project_programmeren_3\Opdracht2\reflection_opgave\src\main\java\be\kdg\distrib\skeletonFactory\Skeleton.java
C:\Users\laura\Documents\ToegepasteInformatica3\Java3\project_programmeren_3\Opdracht2\reflection_opgave\src\main\java\be\kdg\distrib\communication\MessageManager.java
C:\Users\laura\Documents\ToegepasteInformatica3\Java3\project_programmeren_3\Opdracht2\reflection_opgave\src\main\java\be\kdg\distrib\communication\MessageReaderWriter.java
C:\Users\laura\Documents\ToegepasteInformatica3\Java3\project_programmeren_3\Opdracht2\reflection_opgave\src\main\java\be\kdg\distrib\communication\MethodCallMessage.java
